single_cycle/fm.vcd
$date
	Mon Dec  1 10:02:30 2025
$end
$version
	Icarus Verilog
$end
$timescale
	1s
$end
$scope module test $end
$var wire 1 ! except $end
$var reg 1 " clk $end
$var reg 1 # done $end
$var reg 1 $ reset $end
$var integer 32 % i [31:0] $end
$scope module fm $end
$var wire 1 " clk $end
$var wire 1 & overflow $end
$var wire 1 $ reset $end
$var wire 1 ' zero $end
$var wire 32 ( writeback_word [31:0] $end
$var wire 1 ) wr_enable $end
$var wire 1 * word_we $end
$var wire 1 + slt $end
$var wire 32 , sign_ext_out [31:0] $end
$var wire 32 - rtData [31:0] $end
$var wire 32 . rsData [31:0] $end
$var wire 32 / rdData [31:0] $end
$var wire 5 0 r_dest [4:0] $end
$var wire 32 1 out [31:0] $end
$var wire 32 2 nextPC [31:0] $end
$var wire 1 3 negative $end
$var wire 32 4 mem_writeback_word [31:0] $end
$var wire 1 5 mem_read $end
$var wire 1 6 lui $end
$var wire 1 7 itype $end
$var wire 32 8 inst [31:0] $end
$var wire 1 ! except $end
$var wire 8 9 data_out_byte [7:0] $end
$var wire 32 : data_out [31:0] $end
$var wire 2 ; control_type [1:0] $end
$var wire 1 < byte_we $end
$var wire 1 = byte_load $end
$var wire 32 > branch_offset [31:0] $end
$var wire 32 ? alu_writeback_word [31:0] $end
$var wire 3 @ alu_op [2:0] $end
$var wire 32 A adder2_out [31:0] $end
$var wire 32 B adder1_out [31:0] $end
$var wire 32 C PC [31:0] $end
$var wire 32 D ALU_inB [31:0] $end
$scope module ALU_inB_mux $end
$var wire 32 E out [31:0] $end
$var wire 32 F temp1 [31:0] $end
$var wire 32 G temp2 [31:0] $end
$var wire 1 7 sel $end
$var wire 32 H B [31:0] $end
$var wire 32 I A [31:0] $end
$var parameter 32 J width $end
$upscope $end
$scope module PC_reg $end
$var wire 1 " clk $end
$var wire 1 K enable $end
$var wire 1 $ reset $end
$var wire 32 L d [31:0] $end
$var parameter 32 M reset_value $end
$var parameter 32 N width $end
$var reg 32 O q [31:0] $end
$upscope $end
$scope module adder1 $end
$var wire 32 P A [31:0] $end
$var wire 32 Q B [31:0] $end
$var wire 32 R out [31:0] $end
$upscope $end
$scope module adder2 $end
$var wire 32 S A [31:0] $end
$var wire 32 T out [31:0] $end
$var wire 32 U B [31:0] $end
$upscope $end
$scope module byteload_mux $end
$var wire 32 V B [31:0] $end
$var wire 32 W out [31:0] $end
$var wire 32 X temp1 [31:0] $end
$var wire 32 Y temp2 [31:0] $end
$var wire 1 = sel $end
$var wire 32 Z A [31:0] $end
$var parameter 32 [ width $end
$upscope $end
$scope module control_type_mux $end
$var wire 32 \ A [31:0] $end
$var wire 32 ] B [31:0] $end
$var wire 32 ^ C [31:0] $end
$var wire 32 _ wCD [31:0] $end
$var wire 32 ` wAB [31:0] $end
$var wire 2 a sel [1:0] $end
$var wire 32 b out [31:0] $end
$var wire 32 c D [31:0] $end
$var parameter 32 d width $end
$scope module mAB $end
$var wire 32 e A [31:0] $end
$var wire 32 f B [31:0] $end
$var wire 32 g out [31:0] $end
$var wire 1 h sel $end
$var wire 32 i temp1 [31:0] $end
$var wire 32 j temp2 [31:0] $end
$var parameter 32 k width $end
$upscope $end
$scope module mCD $end
$var wire 32 l A [31:0] $end
$var wire 32 m out [31:0] $end
$var wire 1 n sel $end
$var wire 32 o temp1 [31:0] $end
$var wire 32 p temp2 [31:0] $end
$var wire 32 q B [31:0] $end
$var parameter 32 r width $end
$upscope $end
$scope module mfinal $end
$var wire 32 s A [31:0] $end
$var wire 32 t B [31:0] $end
$var wire 32 u out [31:0] $end
$var wire 1 v sel $end
$var wire 32 w temp1 [31:0] $end
$var wire 32 x temp2 [31:0] $end
$var parameter 32 y width $end
$upscope $end
$upscope $end
$scope module data_memory $end
$var wire 1 " clk $end
$var wire 32 z d_out [31:0] $end
$var wire 32 { data_out [31:0] $end
$var wire 1 $ reset $end
$var wire 1 | valid_address $end
$var wire 1 * word_we $end
$var wire 19 } index [18:0] $end
$var wire 32 ~ data_in [31:0] $end
$var wire 1 < byte_we $end
$var wire 32 !" addr [31:0] $end
$var parameter 64 "" data_length $end
$var parameter 32 #" data_start $end
$var parameter 32 $" data_words $end
$var integer 32 %" i [31:0] $end
$upscope $end
$scope module data_out_byte_mux $end
$var wire 8 &" A [7:0] $end
$var wire 8 '" B [7:0] $end
$var wire 8 (" C [7:0] $end
$var wire 8 )" D [7:0] $end
$var wire 2 *" sel [1:0] $end
$var wire 8 +" wCD [7:0] $end
$var wire 8 ," wAB [7:0] $end
$var wire 8 -" out [7:0] $end
$var parameter 32 ." width $end
$scope module mAB $end
$var wire 8 /" A [7:0] $end
$var wire 8 0" B [7:0] $end
$var wire 8 1" out [7:0] $end
$var wire 1 2" sel $end
$var wire 8 3" temp1 [7:0] $end
$var wire 8 4" temp2 [7:0] $end
$var parameter 32 5" width $end
$upscope $end
$scope module mCD $end
$var wire 8 6" A [7:0] $end
$var wire 8 7" B [7:0] $end
$var wire 8 8" out [7:0] $end
$var wire 1 9" sel $end
$var wire 8 :" temp1 [7:0] $end
$var wire 8 ;" temp2 [7:0] $end
$var parameter 32 <" width $end
$upscope $end
$scope module mfinal $end
$var wire 8 =" A [7:0] $end
$var wire 8 >" B [7:0] $end
$var wire 8 ?" out [7:0] $end
$var wire 1 @" sel $end
$var wire 8 A" temp1 [7:0] $end
$var wire 8 B" temp2 [7:0] $end
$var parameter 32 C" width $end
$upscope $end
$upscope $end
$scope module decoder $end
$var wire 1 D" alu_write $end
$var wire 1 = byte_load $end
$var wire 6 E" funct [5:0] $end
$var wire 1 F" loads $end
$var wire 1 5 mem_read $end
$var wire 6 G" opcode [5:0] $end
$var wire 1 H" r_type_write $end
$var wire 1 + slt $end
$var wire 1 ) writeenable $end
$var wire 1 ' zero $end
$var wire 1 * word_we $end
$var wire 1 6 lui $end
$var wire 1 7 itype $end
$var wire 1 < byte_we $end
$var reg 3 I" alu_op [2:0] $end
$var reg 2 J" control_type [1:0] $end
$var reg 1 ! except $end
$upscope $end
$scope module inst_mem $end
$var wire 30 K" addr [29:0] $end
$var wire 32 L" data [31:0] $end
$var reg 32 M" i [31:0] $end
$upscope $end
$scope module lui_mux $end
$var wire 32 N" B [31:0] $end
$var wire 32 O" out [31:0] $end
$var wire 1 6 sel $end
$var wire 32 P" temp1 [31:0] $end
$var wire 32 Q" temp2 [31:0] $end
$var wire 32 R" A [31:0] $end
$var parameter 32 S" width $end
$upscope $end
$scope module mainALU $end
$var wire 3 T" control [2:0] $end
$var wire 32 U" inB [31:0] $end
$var wire 1 3 negative $end
$var wire 32 V" out [31:0] $end
$var wire 1 & overflow $end
$var wire 1 ' zero $end
$var wire 32 W" inA [31:0] $end
$upscope $end
$scope module mem_read_mux $end
$var wire 32 X" B [31:0] $end
$var wire 32 Y" out [31:0] $end
$var wire 1 5 sel $end
$var wire 32 Z" temp1 [31:0] $end
$var wire 32 [" temp2 [31:0] $end
$var wire 32 \" A [31:0] $end
$var parameter 32 ]" width $end
$upscope $end
$scope module rd_mux $end
$var wire 5 ^" A [4:0] $end
$var wire 5 _" B [4:0] $end
$var wire 5 `" out [4:0] $end
$var wire 1 7 sel $end
$var wire 5 a" temp1 [4:0] $end
$var wire 5 b" temp2 [4:0] $end
$var parameter 32 c" width $end
$upscope $end
$scope module rf $end
$var wire 1 " clock $end
$var wire 32 d" rdData [31:0] $end
$var wire 5 e" rdNum [4:0] $end
$var wire 1 ) rdWriteEnable $end
$var wire 1 $ reset $end
$var wire 32 f" rsData [31:0] $end
$var wire 5 g" rsNum [4:0] $end
$var wire 32 h" rtData [31:0] $end
$var wire 5 i" rtNum [4:0] $end
$var integer 32 j" i [31:0] $end
$upscope $end
$scope module shifter $end
$var wire 30 k" in [29:0] $end
$var wire 32 l" out [31:0] $end
$upscope $end
$scope module signext $end
$var wire 16 m" in [15:0] $end
$var wire 32 n" out [31:0] $end
$upscope $end
$scope module slt_mux $end
$var wire 32 o" A [31:0] $end
$var wire 32 p" B [31:0] $end
$var wire 32 q" out [31:0] $end
$var wire 1 + sel $end
$var wire 32 r" temp1 [31:0] $end
$var wire 32 s" temp2 [31:0] $end
$var parameter 32 t" width $end
$upscope $end
$upscope $end
$upscope $end
$enddefinitions $end
$comment Show the parameter values. $end
$dumpall
b100000 t"
b101 c"
b100000 ]"
b100000 S"
b1000 C"
b1000 <"
b1000 5"
b1000 ."
b1000000000000000000 $"
b10000000000000000000000000000 #"
b100000000000000000000 ""
b100000 y
b100000 r
b100000 k
b100000 d
b100000 [
b100000 N
b0 M
b100000 J
$end
#0
$dumpvars
b0 s"
b0 r"
b0 q"
b0 p"
b0 o"
b1000000000001 n"
b1000000000001 m"
b100000000000100 l"
b1000000000001 k"
b100000 j"
b10 i"
b0 h"
b0 g"
b0 f"
b10 e"
b10000000000010000000000000000 d"
b10 b"
b0 a"
b10 `"
b10 _"
b10 ^"
b0 \"
b0 ["
b0 Z"
b0 Y"
b11011110101011011011111011101111 X"
b0 W"
b0 V"
b1000000000001 U"
b100 T"
b0 R"
b10000000000010000000000000000 Q"
b0 P"
b10000000000010000000000000000 O"
b10000000000010000000000000000 N"
b100000000 M"
b111100000000100001000000000001 L"
b0 K"
b0 J"
b100 I"
0H"
b1111 G"
0F"
b1 E"
1D"
b0 B"
b11101111 A"
0@"
b11101111 ?"
b10101101 >"
b11101111 ="
b0 ;"
b10101101 :"
09"
b10101101 8"
b11011110 7"
b10101101 6"
b0 4"
b11101111 3"
02"
b11101111 1"
b10111110 0"
b11101111 /"
b11101111 -"
b11101111 ,"
b10101101 +"
b0 *"
b11011110 )"
b10101101 ("
b10111110 '"
b11101111 &"
b1000000000000000000 %"
b0 !"
b0 ~
b0 }
0|
b11011110101011011011111011101111 {
b11011110101011011011111011101111 z
b0 x
b100 w
0v
b100 u
b10000100000000000100 t
b100 s
b0 q
b0 p
b10000100000000000100 o
0n
b10000100000000000100 m
b10000100000000000100 l
b0 j
b100 i
0h
b100 g
b100000000001000 f
b100 e
b0 c
b100 b
b0 a
b100 `
b10000100000000000100 _
b10000100000000000100 ^
b100000000001000 ]
b100 \
b11011110101011011011111011101111 Z
b0 Y
b11011110101011011011111011101111 X
b11011110101011011011111011101111 W
b11101111 V
b100000000000100 U
b100000000001000 T
b100 S
b100 R
b100 Q
b0 P
b0 O
b100 L
1K
b0 I
b1000000000001 H
b1000000000001 G
b0 F
b1000000000001 E
b1000000000001 D
b0 C
b100 B
b100000000001000 A
b100 @
b0 ?
b100000000000100 >
0=
0<
b0 ;
b11011110101011011011111011101111 :
b11101111 9
b111100000000100001000000000001 8
17
16
05
b11011110101011011011111011101111 4
03
b100 2
b0 1
b10 0
b10000000000010000000000000000 /
b0 .
b0 -
b1000000000001 ,
0+
0*
1)
b0 (
1'
0&
bx %
1$
0#
0"
0!
$end
#3
0$
#5
b10111110 V
b10111110 9
b10111110 -"
b10111110 ?"
b11001010111111101011101010111110 4
b11001010111111101011101010111110 W
b11001010111111101011101010111110 X"
b10111110 A"
b11001010111111101011101010111110 P"
b11001010111111101011101010111110 X
b11001010 )"
b11001010 7"
b11111110 ("
b11111110 6"
b10111010 '"
b10111010 0"
b10111110 &"
b10111110 /"
b10111110 ,"
b10111110 1"
b10111110 ="
b11111110 +"
b11111110 8"
b11111110 >"
b11001010111111101011101010111110 (
b11001010111111101011101010111110 R"
b11001010111111101011101010111110 Y"
b11001010111111101011101010111110 :
b11001010111111101011101010111110 Z
b11001010111111101011101010111110 {
b11001010111111101011101010111110 z
0'
b10111110 3"
b0 4"
b11111110 :"
b0 ;"
b11001010111111101011101010111110 ["
b10000000000010000000000001100 ?
b10000000000010000000000001100 \"
b10000000000010000000000001100 q"
b100000000000011 }
02"
09"
15
1F"
b10000000000010000000000001100 r"
1|
b0 *"
b10000000000010000000000001100 1
b10000000000010000000000001100 !"
b10000000000010000000000001100 V"
b10000000000010000000000001100 o"
1)
b1100 D
b1100 E
b1100 U"
b11001010111111101011101010111110 /
b11001010111111101011101010111110 O"
b11001010111111101011101010111110 d"
b11 0
b11 `"
b11 e"
b1000011000000000000110000 _
b1000011000000000000110000 m
b1000011000000000000110000 t
b1000 2
b1000 L
b1000 b
b1000 u
b1100 G
b110000 >
b110000 U
b110000 l"
b1100 k"
b10 @
b10 I"
b10 T"
0D"
b0 Q"
b11 b"
b1000011000000000000110000 o
b1000 w
b1100 ,
b1100 H
b1100 n"
b1100 m"
b1100 E"
06
b100011 G"
b11000000000000000000 N"
b11 _"
b0 ^"
b11 i"
b10000000000010000000000000000 .
b10000000000010000000000000000 c
b10000000000010000000000000000 q
b10000000000010000000000000000 W"
b10000000000010000000000000000 f"
b10 g"
b1000011000000000000110000 ^
b1000011000000000000110000 l
b1000 `
b1000 g
b1000 s
b10001100010000110000000000001100 8
b10001100010000110000000000001100 L"
b1000 i
b1 K"
b111000 A
b111000 T
b111000 ]
b111000 f
b1000 B
b1000 R
b1000 S
b1000 \
b1000 e
b100 C
b100 O
b100 P
b0 -
b0 I
b0 ~
b0 h"
1"
#10
0"
#15
b1 /
b1 O"
b1 d"
b1 P"
b1 (
b1 R"
b1 Y"
bx +"
bx 8"
bx >"
bx ,"
bx 1"
bx ="
b1 Z"
b0 ["
bx 4
bx W
bx X"
bx :"
bx 3"
b0xxxxxxxx V
bx 9
bx -"
bx ?"
05
0F"
bx X
bx )"
bx 7"
bx ("
bx 6"
bx '"
bx 0"
bx &"
bx /"
b0 A"
bx B"
b1 s"
b1 p"
13
b1 ?
b1 \"
b1 q"
bx :
bx Z
bx {
bx z
b1111010111010101111 }
1@"
1H"
1+
b0 r"
0|
b10 *"
b11001010111111101011101010111110 1
b11001010111111101011101010111110 !"
b11001010111111101011101010111110 V"
b11001010111111101011101010111110 o"
b0 D
b0 E
b0 U"
b1000 0
b1000 `"
b1000 e"
b1100000010000000010101000 _
b1100000010000000010101000 m
b1100000010000000010101000 t
b1100 2
b1100 L
b1100 b
b1100 u
b10000000010101000 >
b10000000010101000 U
b10000000010101000 l"
b100000000101010 k"
b11 @
b11 I"
b11 T"
b0 G
b0 b"
b1000 a"
b1100000010000000010101000 o
b1100 w
b100000000101010 ,
b100000000101010 H
b100000000101010 n"
b100000000101010 m"
b101010 E"
07
b0 G"
b1000000001010100000000000000000 N"
b0 _"
b1000 ^"
b0 i"
b11001010111111101011101010111110 .
b11001010111111101011101010111110 c
b11001010111111101011101010111110 q
b11001010111111101011101010111110 W"
b11001010111111101011101010111110 f"
b11 g"
b1100000010000000010101000 ^
b1100000010000000010101000 l
b1100 `
b1100 g
b1100 s
b11000000100000000101010 8
b11000000100000000101010 L"
b1100 i
b10 K"
b0 -
b0 I
b0 ~
b0 h"
b10000000010110100 A
b10000000010110100 T
b10000000010110100 ]
b10000000010110100 f
b1100 B
b1100 R
b1100 S
b1100 \
b1100 e
b1000 C
b1000 O
b1000 P
1"
#20
0"
#25
b0 /
b0 O"
b0 d"
b0 P"
b1 V
b1 9
b1 -"
b1 ?"
b0 (
b0 R"
b0 Y"
b0 Z"
b0 +"
b0 8"
b0 >"
b1 ,"
b1 1"
b1 ="
b0 ?
b0 \"
b0 q"
b1 4
b1 W
b1 X"
b0 :"
b1 3"
b0 s"
b1 X
b0 )"
b0 7"
b0 ("
b0 6"
b0 '"
b0 0"
b1 &"
b1 /"
b1 A"
b0 B"
b0 p"
03
b1 :
b1 Z
b1 {
b1 z
b100000000000000 }
0@"
1|
b0 *"
b1001 0
b1001 `"
b1001 e"
b10000000000010000000000000000 1
b10000000000010000000000000000 !"
b10000000000010000000000000000 V"
b10000000000010000000000000000 o"
b1000000010010000010101000 _
b1000000010010000010101000 m
b1000000010010000010101000 t
b10000 2
b10000 L
b10000 b
b10000 u
b10010000010101000 >
b10010000010101000 U
b10010000010101000 l"
b100100000101010 k"
b1001 a"
b1000000010010000010101000 o
b10000 w
b100100000101010 ,
b100100000101010 H
b100100000101010 n"
b100100000101010 m"
b1001000001010100000000000000000 N"
b1001 ^"
b10000000000010000000000000000 .
b10000000000010000000000000000 c
b10000000000010000000000000000 q
b10000000000010000000000000000 W"
b10000000000010000000000000000 f"
b10 g"
b1000000010010000010101000 ^
b1000000010010000010101000 l
b10000 `
b10000 g
b10000 s
b10000000100100000101010 8
b10000000100100000101010 L"
b10000 i
b11 K"
b10010000010111000 A
b10010000010111000 T
b10010000010111000 ]
b10010000010111000 f
b10000 B
b10000 R
b10000 S
b10000 \
b10000 e
b1100 C
b1100 O
b1100 P
1"
#30
0"
#35
b1 /
b1 O"
b1 d"
b1 P"
b1 (
b1 R"
b1 Y"
b1 Z"
b0xxxxxxxx V
bx 9
bx -"
bx ?"
b1 ?
b1 \"
b1 q"
bx A"
b1 s"
bx +"
bx 8"
bx >"
bx ,"
bx 1"
bx ="
b1 p"
13
b11 @
b11 I"
b11 T"
bx 4
bx W
bx X"
bx :"
bx 3"
0'
bx X
bx )"
bx 7"
bx ("
bx 6"
bx '"
bx 0"
bx &"
bx /"
bx :
bx Z
bx {
bx z
b1111100000000000000 }
0|
b1010 0
b1010 `"
b1010 e"
b10000000000010000000000000000 D
b10000000000010000000000000000 E
b10000000000010000000000000000 U"
b11101111111111110000000000000000 1
b11101111111111110000000000000000 !"
b11101111111111110000000000000000 V"
b11101111111111110000000000000000 o"
b10010100000010101000 _
b10010100000010101000 m
b10010100000010101000 t
b10100 2
b10100 L
b10100 b
b10100 u
b10100000010101000 >
b10100000010101000 U
b10100000010101000 l"
b101000000101010 k"
b1010 a"
b10000000000010000000000000000 F
b10010100000010101000 o
b10100 w
b101000000101010 ,
b101000000101010 H
b101000000101010 n"
b101000000101010 m"
b1010000001010100000000000000000 N"
b10 _"
b1010 ^"
b10000000000010000000000000000 -
b10000000000010000000000000000 I
b10000000000010000000000000000 ~
b10000000000010000000000000000 h"
b10 i"
b0 .
b0 c
b0 q
b0 W"
b0 f"
b0 g"
b10010100000010101000 ^
b10010100000010101000 l
b10100 `
b10100 g
b10100 s
b100101000000101010 8
b100101000000101010 L"
b10100 i
b100 K"
b10100000010111100 A
b10100000010111100 T
b10100000010111100 ]
b10100000010111100 f
b10100 B
b10100 R
b10100 S
b10100 \
b10100 e
b10000 C
b10000 O
b10000 P
1"
#40
0"
#45
b0 /
b0 O"
b0 d"
b0 P"
b10101101 V
b10101101 9
b10101101 -"
b10101101 ?"
b0 (
b0 R"
b0 Y"
b0 A"
b10101101 B"
b0 Z"
b10101101 +"
b10101101 8"
b10101101 >"
b11101111 ,"
b11101111 1"
b11101111 ="
1@"
b11 @
b11 I"
b11 T"
b0 ?
b0 \"
b0 q"
b11011110101011011011111011101111 4
b11011110101011011011111011101111 W
b11011110101011011011111011101111 X"
b10101101 :"
b11101111 3"
b10 *"
0'
b0 s"
b11011110101011011011111011101111 X
b11011110 )"
b11011110 7"
b10101101 ("
b10101101 6"
b10111110 '"
b10111110 0"
b11101111 &"
b11101111 /"
b0 p"
03
b11011110101011011011111011101111 :
b11011110101011011011111011101111 Z
b11011110101011011011111011101111 {
b11011110101011011011111011101111 z
b1001000101010000 }
b1011 0
b1011 `"
b1011 e"
b11001010111111101011101010111110 D
b11001010111111101011101010111110 E
b11001010111111101011101010111110 U"
b1000101000000100100010101000010 1
b1000101000000100100010101000010 !"
b1000101000000100100010101000010 V"
b1000101000000100100010101000010 o"
b1000011010110000010101000 _
b1000011010110000010101000 m
b1000011010110000010101000 t
b11000 2
b11000 L
b11000 b
b11000 u
b10110000010101000 >
b10110000010101000 U
b10110000010101000 l"
b101100000101010 k"
b1011 a"
b11001010111111101011101010111110 F
b1000011010110000010101000 o
b11000 w
b101100000101010 ,
b101100000101010 H
b101100000101010 n"
b101100000101010 m"
b1011000001010100000000000000000 N"
b11 _"
b1011 ^"
b11001010111111101011101010111110 -
b11001010111111101011101010111110 I
b11001010111111101011101010111110 ~
b11001010111111101011101010111110 h"
b11 i"
b10000000000010000000000000000 .
b10000000000010000000000000000 c
b10000000000010000000000000000 q
b10000000000010000000000000000 W"
b10000000000010000000000000000 f"
b10 g"
b1000011010110000010101000 ^
b1000011010110000010101000 l
b11000 `
b11000 g
b11000 s
b10000110101100000101010 8
b10000110101100000101010 L"
b11000 i
b101 K"
b10110000011000000 A
b10110000011000000 T
b10110000011000000 ]
b10110000011000000 f
b11000 B
b11000 R
b11000 S
b11000 \
b11000 e
b10100 C
b10100 O
b10100 P
1"
#50
0"
#55
b0xxxxxxxx V
bx 9
bx -"
bx ?"
bx B"
b11111111111111111111111111110010 /
b11111111111111111111111111110010 O"
b11111111111111111111111111110010 d"
bx +"
bx 8"
bx >"
bx ,"
bx 1"
bx ="
b11111111111111111111111111110010 P"
bx 4
bx W
bx X"
bx :"
bx 3"
b11111111111111111111111111110010 (
b11111111111111111111111111110010 R"
b11111111111111111111111111110010 Y"
bx X
bx )"
bx 7"
bx ("
bx 6"
bx '"
bx 0"
bx &"
bx /"
b11111111111111111111111111110010 Z"
b1 p"
13
bx :
bx Z
bx {
bx z
b11111111111111111111111111110010 ?
b11111111111111111111111111110010 \"
b11111111111111111111111111110010 q"
0)
b11111111111111111111111111110010 r"
b1111111111111111100 }
0+
b1010100 j
1n
1h
b0 0
b0 `"
b0 e"
b1110 D
b1110 E
b1110 U"
b11111111111111111111111111110010 1
b11111111111111111111111111110010 !"
b11111111111111111111111111110010 V"
b11111111111111111111111111110010 o"
b0 _
b0 m
b0 t
b1010100 2
b1010100 L
b1010100 b
b1010100 u
b111000 >
b111000 U
b111000 l"
b1110 k"
b1 ;
b1 a
b1 J"
b11 @
b11 I"
b11 T"
0H"
b1110 G
b0 a"
b0 F
b0 o
b1010100 w
b1110 ,
b1110 H
b1110 n"
b1110 m"
b1110 E"
17
b101 G"
b11100000000000000000 N"
b0 _"
b0 ^"
b0 -
b0 I
b0 ~
b0 h"
b0 i"
b0 .
b0 c
b0 q
b0 W"
b0 f"
b1001 g"
b100100000000000000000111000 ^
b100100000000000000000111000 l
b1010100 `
b1010100 g
b1010100 s
b10101001000000000000000001110 8
b10101001000000000000000001110 L"
b0 i
b110 K"
b1010100 A
b1010100 T
b1010100 ]
b1010100 f
b11100 B
b11100 R
b11100 S
b11100 \
b11100 e
b11000 C
b11000 O
b11000 P
1"
#60
0"
#65
b11101111 V
b11101111 9
b11101111 -"
b11101111 ?"
b10101101 +"
b10101101 8"
b10101101 >"
b11101111 ,"
b11101111 1"
b11101111 ="
b0 (
b0 R"
b0 Y"
b11011110101011011011111011101111 4
b11011110101011011011111011101111 W
b11011110101011011011111011101111 X"
b10101101 :"
b11101111 3"
1'
b0 Z"
b11011110101011011011111011101111 X
b11011110 )"
b11011110 7"
b10101101 ("
b10101101 6"
b10111110 '"
b10111110 0"
b11101111 &"
b11101111 /"
b11101111 A"
b0 B"
b0 p"
03
b0 ?
b0 \"
b0 q"
b11011110101011011011111011101111 :
b11011110101011011011111011101111 Z
b11011110101011011011111011101111 {
b11011110101011011011111011101111 z
b0 }
0@"
b10001111100000000111100 _
b10001111100000000111100 m
b10001111100000000111100 t
b0 r"
b0 *"
1)
b10001111100000000111100 o
b1011000 i
b0 1
b0 !"
b0 V"
b0 o"
b11111111111111111111000000001111 D
b11111111111111111111000000001111 E
b11111111111111111111000000001111 U"
0n
0h
b11110000000011110000000000000000 /
b11110000000011110000000000000000 O"
b11110000000011110000000000000000 d"
b10001 0
b10001 `"
b10001 e"
b1011000 2
b1011000 L
b1011000 b
b1011000 u
b11111111111111111111000000001111 G
b11111111111111111100000000111100 >
b11111111111111111100000000111100 U
b11111111111111111100000000111100 l"
b111111111111111111000000001111 k"
b0 ;
b0 a
b0 J"
b100 @
b100 I"
b100 T"
1D"
b0 P"
b11110000000011110000000000000000 Q"
b10001 b"
b1011000 w
b11111111111111111111000000001111 ,
b11111111111111111111000000001111 H
b11111111111111111111000000001111 n"
b1111000000001111 m"
b1111 E"
16
b1111 G"
b11110000000011110000000000000000 N"
b10001 _"
b11110 ^"
b10001 i"
b0 g"
b10001111100000000111100 ^
b10001111100000000111100 l
b1011000 `
b1011000 g
b1011000 s
b111100000100011111000000001111 8
b111100000100011111000000001111 L"
b0 j
b10101 K"
b11111111111111111100000010010100 A
b11111111111111111100000010010100 T
b11111111111111111100000010010100 ]
b11111111111111111100000010010100 f
b1011000 B
b1011000 R
b1011000 S
b1011000 \
b1011000 e
b1010100 C
b1010100 O
b1010100 P
1"
#70
0"
#75
0)
b10000000000000001010100 x
1v
b0 D
b0 E
b0 U"
b0 /
b0 O"
b0 d"
b0 0
b0 `"
b0 e"
b10000000000000001010100 _
b10000000000000001010100 m
b10000000000000001010100 t
b10000000000000001010100 2
b10000000000000001010100 L
b10000000000000001010100 b
b10000000000000001010100 u
b1010100 >
b1010100 U
b1010100 l"
b10101 k"
b10 ;
b10 a
b10 J"
b10 @
b10 I"
b10 T"
0D"
b0 G
b0 Q"
b0 b"
b10000000000000001010100 o
b0 w
b10101 ,
b10101 H
b10101 n"
b10101 m"
b10101 E"
07
06
b10 G"
b101010000000000000000 N"
b10000 _"
b0 ^"
b10000 i"
b10000000000000001010100 ^
b10000000000000001010100 l
b1011100 `
b1011100 g
b1011100 s
b1000000100000000000000010101 8
b1000000100000000000000010101 L"
b1011100 i
b10110 K"
b0 -
b0 I
b0 ~
b0 h"
b10110000 A
b10110000 T
b10110000 ]
b10110000 f
b1011100 B
b1011100 R
b1011100 S
b1011100 \
b1011100 e
b1011000 C
b1011000 O
b1011000 P
1"
#80
0"
#85
1)
b10000000000000001011000 2
b10000000000000001011000 L
b10000000000000001011000 b
b10000000000000001011000 u
b10000000000000001011000 w
b0 x
0v
b11111111111111111111000000001111 D
b11111111111111111111000000001111 E
b11111111111111111111000000001111 U"
b11110000000011110000000000000000 /
b11110000000011110000000000000000 O"
b11110000000011110000000000000000 d"
b10001 0
b10001 `"
b10001 e"
b10001111100000000111100 _
b10001111100000000111100 m
b10001111100000000111100 t
b11111111111111111100000000111100 >
b11111111111111111100000000111100 U
b11111111111111111100000000111100 l"
b111111111111111111000000001111 k"
b100 @
b100 I"
b100 T"
b0 ;
b0 a
b0 J"
1D"
b11111111111111111111000000001111 G
b11110000000011110000000000000000 Q"
b10001 b"
b10001111100000000111100 o
b11111111111111111111000000001111 ,
b11111111111111111111000000001111 H
b11111111111111111111000000001111 n"
b1111000000001111 m"
b1111 E"
17
16
b1111 G"
b11110000000011110000000000000000 N"
b10001 _"
b11110 ^"
b11110000000011110000000000000000 -
b11110000000011110000000000000000 I
b11110000000011110000000000000000 ~
b11110000000011110000000000000000 h"
b10001 i"
b10001111100000000111100 ^
b10001111100000000111100 l
b10000000000000001011000 `
b10000000000000001011000 g
b10000000000000001011000 s
b111100000100011111000000001111 8
b111100000100011111000000001111 L"
b10000000000000001011000 i
b100000000000000010101 K"
b1111111100000010010100 A
b1111111100000010010100 T
b1111111100000010010100 ]
b1111111100000010010100 f
b10000000000000001011000 B
b10000000000000001011000 R
b10000000000000001011000 S
b10000000000000001011000 \
b10000000000000001011000 e
b10000000000000001010100 C
b10000000000000001010100 O
b10000000000000001010100 P
1"
#90
0"
#95
0)
b10000000000000001010100 x
1v
b0 D
b0 E
b0 U"
b0 /
b0 O"
b0 d"
b0 0
b0 `"
b0 e"
b10000000000000001010100 _
b10000000000000001010100 m
b10000000000000001010100 t
b10000000000000001010100 2
b10000000000000001010100 L
b10000000000000001010100 b
b10000000000000001010100 u
b1010100 >
b1010100 U
b1010100 l"
b10101 k"
b10 ;
b10 a
b10 J"
b10 @
b10 I"
b10 T"
0D"
b0 G
b0 Q"
b0 b"
b10000000000000001010100 o
b0 w
b10101 ,
b10101 H
b10101 n"
b10101 m"
b10101 E"
07
06
b10 G"
b101010000000000000000 N"
b10000 _"
b0 ^"
b0 -
b0 I
b0 ~
b0 h"
b10000 i"
b10000000000000001010100 ^
b10000000000000001010100 l
b10000000000000001011100 `
b10000000000000001011100 g
b10000000000000001011100 s
b1000000100000000000000010101 8
b1000000100000000000000010101 L"
b10000000000000001011100 i
b100000000000000010110 K"
b10000000000000010110000 A
b10000000000000010110000 T
b10000000000000010110000 ]
b10000000000000010110000 f
b10000000000000001011100 B
b10000000000000001011100 R
b10000000000000001011100 S
b10000000000000001011100 \
b10000000000000001011100 e
b10000000000000001011000 C
b10000000000000001011000 O
b10000000000000001011000 P
1"
#100
0"
